sample_rate sample_size fft_size  | dt_callback_avg   Ts_avg  dt_frame_avg
96000       2000        16384     | 0.0208            0.0117  0.02080
96000       1600        16384     | 0.0166            0.0093  0.01667
